(+
    (let x 20)
    (prints give x: )
    (read x)
    
    (let i 1)
    (let j 1)
    (let is_prime true)
    
    (while (< (++ i) x) (+
        
        (set is_prime true)
        
        (set j 1)
        
        (while (< (++ j) i) (+
            (if (= 0 (% i j))
                (set is_prime false)
            ())
        ))
        
        (if is_prime (+
            (printn i)
            (printc space)
            (print is prime.)
        )())
    ))
    
    (print all done!)
 )
 
 
 
